{
	"info": {
		"_postman_id": "397a9c93-341d-402b-9b36-13d8f57431ff",
		"name": "GraphQL Product API",
		"schema": "https://schema.getpostman.com/json/collection/v2.1.0/collection.json",
		"_exporter_id": "3570394"
	},
	"item": [
		{
			"name": "Create Producer",
			"request": {
				"method": "POST",
				"header": [
					{
						"key": "Content-Type",
						"value": "application/json"
					}
				],
				"body": {
					"mode": "raw",
					"raw": "{\n    \"query\": \"mutation ($producer: ProducerInput) { createProducer(producer: $producer) { _id name country region } }\",\n    \"variables\": {\n        \"producer\": {\n            \"name\": \"Producer XXX\",\n            \"country\": \"France\",\n            \"region\": \"Burgundy\"\n        }\n    }\n}",
					"options": {
						"raw": {
							"language": "json"
						}
					}
				},
				"url": {
					"raw": "http://localhost:4000/graphql",
					"protocol": "http",
					"host": [
						"localhost"
					],
					"port": "4000",
					"path": [
						"graphql"
					]
				}
			},
			"response": []
		},
		{
			"name": "Create Producer 1 with 5 Products",
			"request": {
				"method": "POST",
				"header": [
					{
						"key": "Content-Type",
						"value": "application/json"
					}
				],
				"body": {
					"mode": "raw",
					"raw": "{\n    \"query\": \"mutation ($products: [ProductInput!]!, $producer: ProducerInput) { createProducts(products: $products, producer: $producer) { _id vintage name producerId } }\",\n    \"variables\": {\n        \"products\": [\n            {\n                \"vintage\": \"2021\",\n                \"name\": \"Chardonnay 123\"\n            },\n            {\n                \"vintage\": \"2020\",\n                \"name\": \"Pinot Noir 1\"\n            },\n            {\n                \"vintage\": \"2019\",\n                \"name\": \"Merlot 1\"\n            },\n            {\n                \"vintage\": \"2018\",\n                \"name\": \"Cabernet Sauvignon 1\"\n            },\n            {\n                \"vintage\": \"2017\",\n                \"name\": \"Syrah 1\"\n            }\n        ],\n        \"producer\": {\n            \"name\": \"Producer 1\",\n            \"country\": \"Italy\",\n            \"region\": \"Tuscany\"\n        }\n    }\n}"
				},
				"url": {
					"raw": "http://localhost:4000/graphql",
					"protocol": "http",
					"host": [
						"localhost"
					],
					"port": "4000",
					"path": [
						"graphql"
					]
				}
			},
			"response": []
		},
		{
			"name": "Create Multiple Products with Existing Producer",
			"request": {
				"method": "POST",
				"header": [
					{
						"key": "Content-Type",
						"value": "application/json"
					}
				],
				"body": {
					"mode": "raw",
					"raw": "{\n    \"query\": \"mutation ($products: [ProductInput!]!) { createProducts(products: $products) { _id vintage name producerId } }\",\n    \"variables\": {\n        \"products\": [\n            {\n                \"vintage\": \"2021\",\n                \"name\": \"Merlot\",\n                \"producerId\": {{producerId}}\n            },\n            {\n                \"vintage\": \"2020\",\n                \"name\": \"Syrah\",\n                \"producerId\": {{producerId}}\n            }\n        ]\n    }\n}"
				},
				"url": {
					"raw": "http://localhost:4000/graphql",
					"protocol": "http",
					"host": [
						"localhost"
					],
					"port": "4000",
					"path": [
						"graphql"
					]
				}
			},
			"response": []
		},
		{
			"name": "Query Product by ID",
			"request": {
				"method": "POST",
				"header": [
					{
						"key": "Content-Type",
						"value": "application/json"
					}
				],
				"body": {
					"mode": "raw",
					"raw": "{ \"query\": \"query ($productId: ID!) { product(_id: $productId) { _id vintage name producer { _id name country region } } }\", \"variables\": { \"productId\": {{productId}} } }"
				},
				"url": {
					"raw": "http://localhost:4000/graphql",
					"protocol": "http",
					"host": [
						"localhost"
					],
					"port": "4000",
					"path": [
						"graphql"
					]
				}
			},
			"response": []
		},
		{
			"name": "Query Products by Producer ID",
			"request": {
				"method": "POST",
				"header": [
					{
						"key": "Content-Type",
						"value": "application/json"
					}
				],
				"body": {
					"mode": "raw",
					"raw": "{ \"query\": \"query ($producerId: ID!) { productsByProducer(producerId: $producerId) { _id vintage name producer { _id name country region } } }\", \"variables\": { \"producerId\": {{producerId}} } }"
				},
				"url": {
					"raw": "http://localhost:4000/graphql",
					"protocol": "http",
					"host": [
						"localhost"
					],
					"port": "4000",
					"path": [
						"graphql"
					]
				}
			},
			"response": []
		},
		{
			"name": "Update Product Name",
			"request": {
				"method": "POST",
				"header": [
					{
						"key": "Content-Type",
						"value": "application/json"
					}
				],
				"body": {
					"mode": "raw",
					"raw": "{\n    \"query\": \"mutation ($productId: ID!, $productInput: ProductInput) { updateProduct(_id: $productId, product: $productInput) { _id name vintage producerId } }\",\n    \"variables\": {\n        \"productId\": {{productId}}, \n        \"productInput\": {\n            \"name\": \"Updated Product Name\",\n            \"vintage\": \"2022\"\n        }\n    }\n}"
				},
				"url": {
					"raw": "http://localhost:4000/graphql",
					"protocol": "http",
					"host": [
						"localhost"
					],
					"port": "4000",
					"path": [
						"graphql"
					]
				}
			},
			"response": []
		},
		{
			"name": "Delete Products",
			"request": {
				"method": "POST",
				"header": [
					{
						"key": "Content-Type",
						"value": "application/json"
					}
				],
				"body": {
					"mode": "raw",
					"raw": "{\n  \"query\": \"mutation ($productIds: [ID]!) { deleteProducts(_ids: $productIds) }\",\n  \"variables\": {\n    \"productIds\": [{{productId}}] // or replace with the actual product IDs you want to delete\n  }\n}"
				},
				"url": {
					"raw": "http://localhost:4000/graphql",
					"protocol": "http",
					"host": [
						"localhost"
					],
					"port": "4000",
					"path": [
						"graphql"
					]
				}
			},
			"response": []
		},
		{
			"name": "Synchronize products",
			"request": {
				"method": "POST",
				"header": [
					{
						"key": "Content-Type",
						"value": "application/json"
					}
				],
				"body": {
					"mode": "raw",
					"raw": "{\n   \"query\": \"mutation { synchronizeProducts }\"\n}"
				},
				"url": {
					"raw": "http://localhost:4000/graphql",
					"protocol": "http",
					"host": [
						"localhost"
					],
					"port": "4000",
					"path": [
						"graphql"
					]
				}
			},
			"response": []
		}
	]
}